{
  "bomFormat" : "CycloneDX",
  "specVersion" : "1.5",
  "serialNumber" : "urn:uuid:fca916fe-cb65-39d2-a870-ddf5aad04f7c",
  "version" : 1,
  "metadata" : {
    "timestamp" : "2024-04-04T08:48:46Z",
    "lifecycles" : [
      {
        "phase" : "build"
      }
    ],
    "tools" : [
      {
        "vendor" : "OWASP Foundation",
        "name" : "CycloneDX Maven plugin",
        "version" : "2.8.0",
        "hashes" : [
          {
            "alg" : "MD5",
            "content" : "76ffec6a7ddd46b2b24517411874eb99"
          },
          {
            "alg" : "SHA-1",
            "content" : "5b0d5b41975b53be4799b9621b4af0cfc41d44b6"
          },
          {
            "alg" : "SHA-256",
            "content" : "6852aa0f4e42a2db745bab80e384951a6a65b9215d041081d675780999027e81"
          },
          {
            "alg" : "SHA-512",
            "content" : "417de20fcdcb11c9713bacbd57290d8e68037fdb4553fd31b8cb08bd760ad52dc65ea88ad4be15844ad3fd5a4d3e440d2f70326f2fe1e63ec78e059c9a883f8d"
          },
          {
            "alg" : "SHA-384",
            "content" : "5eb755c6492e7a7385fa9a1e1f4517875bcb834b2df437808a37a2d6f5285df428741762305980315a63fcef1406597d"
          },
          {
            "alg" : "SHA3-384",
            "content" : "0fe16a47cf7aab0b22251dafcc39939b68e8f1778093309d8d2060b51a08df445a8b8ed5a9561669faf2e55f907c76d8"
          },
          {
            "alg" : "SHA3-256",
            "content" : "3e5a1eb5ab7d0797498862794709ff8eaaa071fe4cc9ec77f52db7e2f97ef487"
          },
          {
            "alg" : "SHA3-512",
            "content" : "59281a3e29e76270d7f44b40b5b9f05e55f1ae3ec716d80add806f360940809e3813998ac7c5758043b8e248aed73b86e37dc506cdb4cde03c16bb617d8e5a3a"
          }
        ]
      }
    ],
    "component" : {
      "group" : "dev.glt24demo.springboot",
      "name" : "demo",
      "version" : "0.0.1-SNAPSHOT",
      "description" : "Demo project for Spring Boot",
      "licenses" : [
        {
          "license" : {
            "id" : "Apache-2.0"
          }
        }
      ],
      "purl" : "pkg:maven/dev.glt24demo.springboot/demo@0.0.1-SNAPSHOT?type=jar",
      "externalReferences" : [
        {
          "type" : "website",
          "url" : "https://spring.io/projects/spring-boot/demo"
        },
        {
          "type" : "vcs",
          "url" : "https://github.com/spring-projects/spring-boot/demo"
        }
      ],
      "type" : "library",
      "bom-ref" : "pkg:maven/dev.glt24demo.springboot/demo@0.0.1-SNAPSHOT?type=jar"
    },
    "properties" : [
      {
        "name" : "maven.goal",
        "value" : "makeAggregateBom"
      },
      {
        "name" : "maven.scopes",
        "value" : "compile,provided,runtime,system"
      }
    ]
  },
  "components" : [
    {
      "publisher" : "VMware, Inc.",
      "group" : "org.springframework.boot",
      "name" : "spring-boot-starter",
      "version" : "3.2.4",
      "description" : "Core starter, including auto-configuration support, logging and YAML",
      "scope" : "required",
      "hashes" : [
        {
          "alg" : "MD5",
          "content" : "f6de8ef670d3f6463df6a05a65763193"
        },
        {
          "alg" : "SHA-1",
          "content" : "0842cf7f0ed2ecfef3011f3191fc53c59ceed752"
        },
        {
          "alg" : "SHA-256",
          "content" : "2fd859463321453117a0f9ddb17d460d4ecc433d10ec10c12e7933e03a5cd6dc"
        },
        {
          "alg" : "SHA-512",
          "content" : "6c5f750302274c6682aaf906a0fc8f1b5ecab958e2c38c41249e9ff68dc36b36b003420cb247fde50a8b2caa1dfc1595b9c267d1d5698da7b07461ff69f25c43"
        },
        {
          "alg" : "SHA-384",
          "content" : "1f734fda61051177278343bb3a5c1209c5ff8cc5c3542e7732970b6e8164c0910d0035269d2a11efa3f56db5fdea8949"
        },
        {
          "alg" : "SHA3-384",
          "content" : "56fd789c780b51b8b8260693ae2ecccd94deaec389f565cc45198859c95cafd170a350d633687279458ec8caca73cfd8"
        },
        {
          "alg" : "SHA3-256",
          "content" : "875b87bca61e5595101a93134feabf9d4857235bb678543e228783e1d5b95a1f"
        },
        {
          "alg" : "SHA3-512",
          "content" : "f398e1b1a8606c2832d67ad2544dc4172bb8fe40e6401779b6b75e6b2e456d5a12aaeb8ca8a230bd3867a8c9975b887b2938082f1067463cb8de1d01559ddc4f"
        }
      ],
      "licenses" : [
        {
          "license" : {
            "id" : "Apache-2.0"
          }
        }
      ],
      "purl" : "pkg:maven/org.springframework.boot/spring-boot-starter@3.2.4?type=jar",
      "externalReferences" : [
        {
          "type" : "website",
          "url" : "https://spring.io/projects/spring-boot"
        },
        {
          "type" : "issue-tracker",
          "url" : "https://github.com/spring-projects/spring-boot/issues"
        },
        {
          "type" : "vcs",
          "url" : "https://github.com/spring-projects/spring-boot"
        }
      ],
      "type" : "library",
      "bom-ref" : "pkg:maven/org.springframework.boot/spring-boot-starter@3.2.4?type=jar"
    },
    {
      "publisher" : "VMware, Inc.",
      "group" : "org.springframework.boot",
      "name" : "spring-boot",
      "version" : "3.2.4",
      "description" : "Spring Boot",
      "scope" : "required",
      "hashes" : [
        {
          "alg" : "MD5",
          "content" : "4adff5bbb390c9d721c8193caa0f9ee7"
        },
        {
          "alg" : "SHA-1",
          "content" : "ccb7cbb30dcf1d91dbbf20a3219a457eead46601"
        },
        {
          "alg" : "SHA-256",
          "content" : "f9bbba10663bbe4675264aeb07197629f1bbcac611189f8987a46c82f7ffb95a"
        },
        {
          "alg" : "SHA-512",
          "content" : "84ddabc2d4c8a88bfabc5fffa28446a84e886e82dd12cbbb1e05752a3581b68f189f26d9779fef792cb498cc053c2f84003d1afc8a94dec2b2257facb1050ad1"
        },
        {
          "alg" : "SHA-384",
          "content" : "0534d9f856aea4f42498f4c02c135a5b29f1eaa40830f9b34b09a113a22c7ab9020cd0c282cfcbf9b8bf8adf9a444da5"
        },
        {
          "alg" : "SHA3-384",
          "content" : "55618b134e14febb63bb4e4b055b43bc80c336ebb45c2c49e304a5bc7faa054e624df4202aebf3b3b419a49bed48d185"
        },
        {
          "alg" : "SHA3-256",
          "content" : "e20fc3d5385ce86c3316e6b2079a3b754dd418b3392d7607086a4e55b09278a2"
        },
        {
          "alg" : "SHA3-512",
          "content" : "d0379c8c0d522392af62ad3f8827883389903a58e60f29c74d97fac67cb443f061a1472c502470f69e0f85eaceb9e7fbe252b987d9d3180ef697c110bd04d6c3"
        }
      ],
      "licenses" : [
        {
          "license" : {
            "id" : "Apache-2.0"
          }
        }
      ],
      "purl" : "pkg:maven/org.springframework.boot/spring-boot@3.2.4?type=jar",
      "externalReferences" : [
        {
          "type" : "website",
          "url" : "https://spring.io/projects/spring-boot"
        },
        {
          "type" : "issue-tracker",
          "url" : "https://github.com/spring-projects/spring-boot/issues"
        },
        {
          "type" : "vcs",
          "url" : "https://github.com/spring-projects/spring-boot"
        }
      ],
      "type" : "library",
      "bom-ref" : "pkg:maven/org.springframework.boot/spring-boot@3.2.4?type=jar"
    },
    {
      "publisher" : "Spring IO",
      "group" : "org.springframework",
      "name" : "spring-context",
      "version" : "6.1.5",
      "description" : "Spring Context",
      "scope" : "required",
      "hashes" : [
        {
          "alg" : "MD5",
          "content" : "63e65c963507543c720e53f43e524290"
        },
        {
          "alg" : "SHA-1",
          "content" : "735d1bd7372d7c53e7b31b4a9c980ce2e0b26424"
        },
        {
          "alg" : "SHA-256",
          "content" : "8f85eb0abe1e80f62a831f74be135e3cbbe0587a510417af74fdd2e3bea4eec7"
        },
        {
          "alg" : "SHA-512",
          "content" : "9d34d08c6e6741b834a1a14a9db447b979f9603b8f9657c3b157105b4d819891173f2726448e56acc3928b13e68c791313184adb9e7259a5a19457f9c321fd83"
        },
        {
          "alg" : "SHA-384",
          "content" : "7d6efebc3c6e59cb4313cc59a8ad800657b5d3fdf58c4482a93bbef10df79646df17d833c5f3b17472e295343dc8341f"
        },
        {
          "alg" : "SHA3-384",
          "content" : "51b76f652dba46883d2f654f2cd83799a8f05e94b6c3459f503862ec3338be9bccc482aaa2cffce221176faf18bbc42d"
        },
        {
          "alg" : "SHA3-256",
          "content" : "ea8e118d0918df372b967d1a4c32aa5ac1a9eb068a517ed9c3a6e42c57e139b6"
        },
        {
          "alg" : "SHA3-512",
          "content" : "a158804a03d06a15b2d660312abb716016a8e0c983e0bb2947fdced300ade74da24d756c1c708385e46feca91904ce245f9f7f59da3990a61b1a7fb30ef47d3b"
        }
      ],
      "licenses" : [
        {
          "license" : {
            "id" : "Apache-2.0"
          }
        }
      ],
      "purl" : "pkg:maven/org.springframework/spring-context@6.1.5?type=jar",
      "externalReferences" : [
        {
          "type" : "website",
          "url" : "https://github.com/spring-projects/spring-framework"
        },
        {
          "type" : "issue-tracker",
          "url" : "https://github.com/spring-projects/spring-framework/issues"
        },
        {
          "type" : "vcs",
          "url" : "https://github.com/spring-projects/spring-framework"
        }
      ],
      "type" : "library",
      "bom-ref" : "pkg:maven/org.springframework/spring-context@6.1.5?type=jar"
    },
    {
      "publisher" : "Spring IO",
      "group" : "org.springframework",
      "name" : "spring-aop",
      "version" : "6.1.5",
      "description" : "Spring AOP",
      "scope" : "required",
      "hashes" : [
        {
          "alg" : "MD5",
          "content" : "09234d9ae52eaaeb4b97068cbb8e139f"
        },
        {
          "alg" : "SHA-1",
          "content" : "a4f596bd3c55b6cec93f0e2e7245dd0bab8afec3"
        },
        {
          "alg" : "SHA-256",
          "content" : "1e03dacb0da992938ef597daa9627104992efcb5a224fcb0ba10761f5603db70"
        },
        {
          "alg" : "SHA-512",
          "content" : "a37b61b33517ab7cad6ac08d233d04af3a27a7f6006107a0ed1ecd2a256252794ef17ec302358afb2ad2c4141941f3939efa5d41cd1e659efc6cf6a1127f7d87"
        },
        {
          "alg" : "SHA-384",
          "content" : "3de39635b11b323a163daead206941d86d64187c58f60569b8f7c1c07002e266e4d0b116ed4bfb1eee2e2409d000992d"
        },
        {
          "alg" : "SHA3-384",
          "content" : "039b725a61bcf246017758e50775cfc8b58634eda65a9e615183e732790b9e76745414d03f08c465f919ca988ad020e2"
        },
        {
          "alg" : "SHA3-256",
          "content" : "0d6e7229d8d6ebb9b1c699af10fab5b99f07e2047e78498ef9fd0a41003290f8"
        },
        {
          "alg" : "SHA3-512",
          "content" : "4a7ea9daab761389a7cdefa783800b3604413808715811380e47f264ca154cd94de5258f98cc03ee912a9297e08d68b3be7a5f0c2026dc6ac42cdda60004e6ce"
        }
      ],
      "licenses" : [
        {
          "license" : {
            "id" : "Apache-2.0"
          }
        }
      ],
      "purl" : "pkg:maven/org.springframework/spring-aop@6.1.5?type=jar",
      "externalReferences" : [
        {
          "type" : "website",
          "url" : "https://github.com/spring-projects/spring-framework"
        },
        {
          "type" : "issue-tracker",
          "url" : "https://github.com/spring-projects/spring-framework/issues"
        },
        {
          "type" : "vcs",
          "url" : "https://github.com/spring-projects/spring-framework"
        }
      ],
      "type" : "library",
      "bom-ref" : "pkg:maven/org.springframework/spring-aop@6.1.5?type=jar"
    },
    {
      "publisher" : "Spring IO",
      "group" : "org.springframework",
      "name" : "spring-beans",
      "version" : "6.1.5",
      "description" : "Spring Beans",
      "scope" : "required",
      "hashes" : [
        {
          "alg" : "MD5",
          "content" : "2a9d09f3c9f6ea5549166cf86209a32b"
        },
        {
          "alg" : "SHA-1",
          "content" : "9ae967f467281c9bb977585ef4d5ea7351704d60"
        },
        {
          "alg" : "SHA-256",
          "content" : "bdcf61036293fc3475272e743b625d679e06d152b781134951c907b185f0f5f1"
        },
        {
          "alg" : "SHA-512",
          "content" : "8d87408b13672074c2d8ca511dbd93de967daa27ceb1be8a1b8aeaab7b371134430df7667bf51d6bfcb3e9a1c050b9b166f9aa8c39612ca7ec282fdb8d358888"
        },
        {
          "alg" : "SHA-384",
          "content" : "c2bbb097aefaf4bb4834233364fdc69594087f3fad12b2b5402a24fe9eeb7b32888bd85731381afc1e3a1edad23a6a05"
        },
        {
          "alg" : "SHA3-384",
          "content" : "484b7ba7a6f1ca55017722af1a80ad9d263f6282108dad4a0f4787b4c0b90a85e312e41e7b78a074efb07055ef9d9ab6"
        },
        {
          "alg" : "SHA3-256",
          "content" : "951dfe61bf31ebfcd560efc9fa792d07f228009f4542e0c6234e8ab2b244cf62"
        },
        {
          "alg" : "SHA3-512",
          "content" : "4400833d537ec5cf1766c0ecdb40262160d6a9726e7ae5d2a3dc18ca6ba82fab1907450df8b71c9ce938643f0e47ac7d885e1e1db4903b0d06cfe6cbef3ff901"
        }
      ],
      "licenses" : [
        {
          "license" : {
            "id" : "Apache-2.0"
          }
        }
      ],
      "purl" : "pkg:maven/org.springframework/spring-beans@6.1.5?type=jar",
      "externalReferences" : [
        {
          "type" : "website",
          "url" : "https://github.com/spring-projects/spring-framework"
        },
        {
          "type" : "issue-tracker",
          "url" : "https://github.com/spring-projects/spring-framework/issues"
        },
        {
          "type" : "vcs",
          "url" : "https://github.com/spring-projects/spring-framework"
        }
      ],
      "type" : "library",
      "bom-ref" : "pkg:maven/org.springframework/spring-beans@6.1.5?type=jar"
    },
    {
      "publisher" : "Spring IO",
      "group" : "org.springframework",
      "name" : "spring-expression",
      "version" : "6.1.5",
      "description" : "Spring Expression Language (SpEL)",
      "scope" : "required",
      "hashes" : [
        {
          "alg" : "MD5",
          "content" : "1f268a22bb7c0cb80958953ffbc21125"
        },
        {
          "alg" : "SHA-1",
          "content" : "7e21cb1c6bbef1509e12d485b75ffc61278d9fa7"
        },
        {
          "alg" : "SHA-256",
          "content" : "1f37b50dcaf091a43bb10d946178fff4082674497fd821438327815da14f7fd0"
        },
        {
          "alg" : "SHA-512",
          "content" : "d5a13856a7f4619eaf1c9593f7739ec5cde37a555a98f0da4cb21aa591e87fb0bcdbd2a5da67d9b69a0dab0016f806c9d3f096bc8841c32bb98810daf1e5e7b7"
        },
        {
          "alg" : "SHA-384",
          "content" : "1e0c29ba819c5c8f5eb278a8f308a0119a476e81998ff5c7658b150352d357ef53c408566bd7a0b8023b7b41cabf4636"
        },
        {
          "alg" : "SHA3-384",
          "content" : "f9cefe146557fe266e6e38bc8fbe157c7ef10fc606edafaf901d393ab140d25dabf4e60ff79c6a45a83c7eff890d3cac"
        },
        {
          "alg" : "SHA3-256",
          "content" : "ba29e269a74f3c452a64bd9e7a680c84c5c26b96397683c22435e4fcea8ecb9e"
        },
        {
          "alg" : "SHA3-512",
          "content" : "8de364ab79572c8d2af2dc22ea5768d323b7268e03ae977701024f17e6fede13f03e248ef44c6789dea3007723beb1454c7795b45f3834b6040510661b6dee54"
        }
      ],
      "licenses" : [
        {
          "license" : {
            "id" : "Apache-2.0"
          }
        }
      ],
      "purl" : "pkg:maven/org.springframework/spring-expression@6.1.5?type=jar",
      "externalReferences" : [
        {
          "type" : "website",
          "url" : "https://github.com/spring-projects/spring-framework"
        },
        {
          "type" : "issue-tracker",
          "url" : "https://github.com/spring-projects/spring-framework/issues"
        },
        {
          "type" : "vcs",
          "url" : "https://github.com/spring-projects/spring-framework"
        }
      ],
      "type" : "library",
      "bom-ref" : "pkg:maven/org.springframework/spring-expression@6.1.5?type=jar"
    },
    {
      "group" : "io.micrometer",
      "name" : "micrometer-observation",
      "version" : "1.12.4",
      "description" : "Module containing Observation related code",
      "scope" : "required",
      "hashes" : [
        {
          "alg" : "MD5",
          "content" : "afc8b85ec27a47cbd1fa0469f6a7190d"
        },
        {
          "alg" : "SHA-1",
          "content" : "492deebbd9b8ab23f588428f66578e21af266e01"
        },
        {
          "alg" : "SHA-256",
          "content" : "51a670bb33cf979bca49b46391bd744c3a4e23699d0a305c2134ef0d01a910f3"
        },
        {
          "alg" : "SHA-512",
          "content" : "781362dab6cddf09cd159bbe2e6dd7b1b20ba67d98949a8b8c717c14e2df0e60e663b4b75751153bb50393d8c1b773125cce74e9b7fd0d6614ea14f66af48ca4"
        },
        {
          "alg" : "SHA-384",
          "content" : "97943ba2a7d388a00d9415cfca49325d0d0b32ad0aa616132f33ce3aff13e7bc25182c96a58dd5a0bdf582826eafe895"
        },
        {
          "alg" : "SHA3-384",
          "content" : "d12ac9c41894a726746ccbbcde32abc7ceca4b85567cf662075a23bbbadbbcba46e3ea07824faa766ef6fbe90c21080d"
        },
        {
          "alg" : "SHA3-256",
          "content" : "987a4c2ea7d69a51e800d665a911cc6b06abd11b8b7590a8267744b7f8e0f3b3"
        },
        {
          "alg" : "SHA3-512",
          "content" : "e156362d5919763ef4cb82be81dd8357a1eb71a42c86e107fa7f622b6ec0f88fc7c42c2c91fcfe326e2083ec1e0eb19f8b49c29338378728324316efa80bd4b5"
        }
      ],
      "licenses" : [
        {
          "license" : {
            "id" : "Apache-2.0"
          }
        }
      ],
      "purl" : "pkg:maven/io.micrometer/micrometer-observation@1.12.4?type=jar",
      "externalReferences" : [
        {
          "type" : "website",
          "url" : "https://github.com/micrometer-metrics/micrometer"
        }
      ],
      "type" : "library",
      "bom-ref" : "pkg:maven/io.micrometer/micrometer-observation@1.12.4?type=jar"
    },
    {
      "group" : "io.micrometer",
      "name" : "micrometer-commons",
      "version" : "1.12.4",
      "description" : "Module containing common code",
      "scope" : "required",
      "hashes" : [
        {
          "alg" : "MD5",
          "content" : "e40b0f802b8e2b7fdc983b7aafb90718"
        },
        {
          "alg" : "SHA-1",
          "content" : "a57f10c78956b38087f97beae66cf14cb8b08d34"
        },
        {
          "alg" : "SHA-256",
          "content" : "62e46f3b46e234e38f8333cf3e3a5ff54d0a9f3ca890e4b9773674d180c36914"
        },
        {
          "alg" : "SHA-512",
          "content" : "68eae0875c4249633565ba8440250ec3ab11ae6e955e00316bfaa55cb14f7a4a71231bbdf49299503477c2bfaecd4695280266b7620fa92f17084ae4c3698f1d"
        },
        {
          "alg" : "SHA-384",
          "content" : "75740249c7e14772b1244191bcbec1a7b705465c50ec9f89c826bd8488f49915cf9dfb901171b7179f364233af7fd222"
        },
        {
          "alg" : "SHA3-384",
          "content" : "9b31fe97ca8b13588f547613ac5a1b109e3611d58291789195bac65d19e61108478b0d1208b983514931d2070ed788c3"
        },
        {
          "alg" : "SHA3-256",
          "content" : "013419159cf6786277b8da87b2f7a1160787cbfffaf8a624521c97910cd173a1"
        },
        {
          "alg" : "SHA3-512",
          "content" : "f4b7ec9cae37c633a27c8aae9e11f6b021080f07a32019fbc1721b87bcb36d05a44a5421c4df4087d730ed195ab097d780a4114525f4405de7c8aef1b21160ac"
        }
      ],
      "licenses" : [
        {
          "license" : {
            "id" : "Apache-2.0"
          }
        }
      ],
      "purl" : "pkg:maven/io.micrometer/micrometer-commons@1.12.4?type=jar",
      "externalReferences" : [
        {
          "type" : "website",
          "url" : "https://github.com/micrometer-metrics/micrometer"
        }
      ],
      "type" : "library",
      "bom-ref" : "pkg:maven/io.micrometer/micrometer-commons@1.12.4?type=jar"
    },
    {
      "publisher" : "VMware, Inc.",
      "group" : "org.springframework.boot",
      "name" : "spring-boot-autoconfigure",
      "version" : "3.2.4",
      "description" : "Spring Boot AutoConfigure",
      "scope" : "required",
      "hashes" : [
        {
          "alg" : "MD5",
          "content" : "96bc94a0457a4f75b1604866ea10334d"
        },
        {
          "alg" : "SHA-1",
          "content" : "b3f481aff8f0775f44d78399c804a8c52d75b971"
        },
        {
          "alg" : "SHA-256",
          "content" : "14b4694e1a782ea946264a7676da2936d2474abf0f875739b1af5da3bb7ad85b"
        },
        {
          "alg" : "SHA-512",
          "content" : "a7ba5550c09bb7e2296b7f8c3eb182297732d0c5dd1eae296431b4d0662b57be7c46d16f8e8e39810c0d6cd865ac5ffe1b7ff64ea0ea2ea9474b6ee29c5a906b"
        },
        {
          "alg" : "SHA-384",
          "content" : "90ef9166ab802b58c27904c7e9ccf18cc60a142a7f579c7163225ae6f3853dd7fb6060fc5ec775e154f22ef1f01a616b"
        },
        {
          "alg" : "SHA3-384",
          "content" : "9274030d131043298630ed3648e138eccb75333fda54f7adc9b88d36a8ebfc24a37fb3baf1b90276cb39e8d9993fa138"
        },
        {
          "alg" : "SHA3-256",
          "content" : "9244d05d88e9294f673ebb00e330376faf5b4a7d64ea085ad78539f7d17ff4ab"
        },
        {
          "alg" : "SHA3-512",
          "content" : "4f1d1eb99890559fbe6bede09bd93b3a2dcc80baa7e4cc16a716f3a948945953b048edfdeab29e7e2f0ecd7e2bb622cbf6cf2bf8e385e991e9408f2eb391d64d"
        }
      ],
      "licenses" : [
        {
          "license" : {
            "id" : "Apache-2.0"
          }
        }
      ],
      "purl" : "pkg:maven/org.springframework.boot/spring-boot-autoconfigure@3.2.4?type=jar",
      "externalReferences" : [
        {
          "type" : "website",
          "url" : "https://spring.io/projects/spring-boot"
        },
        {
          "type" : "issue-tracker",
          "url" : "https://github.com/spring-projects/spring-boot/issues"
        },
        {
          "type" : "vcs",
          "url" : "https://github.com/spring-projects/spring-boot"
        }
      ],
      "type" : "library",
      "bom-ref" : "pkg:maven/org.springframework.boot/spring-boot-autoconfigure@3.2.4?type=jar"
    },
    {
      "publisher" : "VMware, Inc.",
      "group" : "org.springframework.boot",
      "name" : "spring-boot-starter-logging",
      "version" : "3.2.4",
      "description" : "Starter for logging using Logback. Default logging starter",
      "scope" : "required",
      "hashes" : [
        {
          "alg" : "MD5",
          "content" : "7de42518576e562f10506307c77097dc"
        },
        {
          "alg" : "SHA-1",
          "content" : "32616f4a33ec0fda0c54aaa67ab10dc78df3fd78"
        },
        {
          "alg" : "SHA-256",
          "content" : "34908ea7f473b5431c293714838294e1f630cb93d6c419cb1370b7ab35cf2424"
        },
        {
          "alg" : "SHA-512",
          "content" : "67938c273ffeeb64dbc8cb1484fe61e9910958485d5c7139f94182ebbdd3c0bcd7b113a2dfe26a3042df7cb10f65c27f0c761acf778140583cf77da94e2e876d"
        },
        {
          "alg" : "SHA-384",
          "content" : "12fd02501b806e812891fdaeb3022a9117427901cd80be16ec5d619691b5881b8bf9650fe8ed4f348bcaabeab328ff85"
        },
        {
          "alg" : "SHA3-384",
          "content" : "1d71d5afe0f72d54927297499c33278f31d3d5148856677f54294897b63469a3fb63b015cbfc26a9b67d6d5430bd8fae"
        },
        {
          "alg" : "SHA3-256",
          "content" : "7f067e4126ae45a3c54f5b58c7b2d4951bf23ec0fde0af54cb3582470fd2ab95"
        },
        {
          "alg" : "SHA3-512",
          "content" : "ddf5654fe4ae4fa5fd444e89cbc6940ca7fcf3dc57876f9346a3d51c7be7c0a00f16e5b1831b0f57440bcf66fda6390a7e6a8cf16ecd8ff548c83c222fee1233"
        }
      ],
      "licenses" : [
        {
          "license" : {
            "id" : "Apache-2.0"
          }
        }
      ],
      "purl" : "pkg:maven/org.springframework.boot/spring-boot-starter-logging@3.2.4?type=jar",
      "externalReferences" : [
        {
          "type" : "website",
          "url" : "https://spring.io/projects/spring-boot"
        },
        {
          "type" : "issue-tracker",
          "url" : "https://github.com/spring-projects/spring-boot/issues"
        },
        {
          "type" : "vcs",
          "url" : "https://github.com/spring-projects/spring-boot"
        }
      ],
      "type" : "library",
      "bom-ref" : "pkg:maven/org.springframework.boot/spring-boot-starter-logging@3.2.4?type=jar"
    },
    {
      "publisher" : "QOS.ch",
      "group" : "ch.qos.logback",
      "name" : "logback-classic",
      "version" : "1.4.14",
      "description" : "logback-classic module",
      "scope" : "required",
      "hashes" : [
        {
          "alg" : "MD5",
          "content" : "204b49a7fa041b2b2c455193079dc1d2"
        },
        {
          "alg" : "SHA-1",
          "content" : "d98bc162275134cdf1518774da4a2a17ef6fb94d"
        },
        {
          "alg" : "SHA-256",
          "content" : "8e832f7263ca606ae36dabb2d8b24c2f43d82cf634e81dad9d1640fa6ee3c596"
        },
        {
          "alg" : "SHA-512",
          "content" : "77b535f2cf5a2fdb807017cb6fe456c40dcb11491e743ff86f99df2714a1b12bb9182ac193d37c8a6dd7eb2bf4c7d24390a6d551d02a280083673516eecdabc4"
        },
        {
          "alg" : "SHA-384",
          "content" : "606400251082b8193a57bb20f1774ee2d6e439fab2ddb0207643fe9cee66cf61edba5e5c80d4b3bc9785a7bab910f8df"
        },
        {
          "alg" : "SHA3-384",
          "content" : "d9d9b1412d2fea3eeb5d110a0e7d44c9bc13459fd2b2f5cbb30b95174081f0184758abe43b5e6b6197a716c3ba7b310f"
        },
        {
          "alg" : "SHA3-256",
          "content" : "e1b0d59a9a91fd7878c92b3680cde8c34896823612a2f04715c05e977c09db82"
        },
        {
          "alg" : "SHA3-512",
          "content" : "e0a39dacbb91b7d9f00bdf78829918079f6f2e749c28f31a359064bac9ac7eb65c87e581795946814460f787e33b8829a9cf0e933a0f87dd7d48f288d45f5064"
        }
      ],
      "licenses" : [
        {
          "license" : {
            "id" : "EPL-1.0"
          }
        },
        {
          "license" : {
            "name" : "GNU Lesser General Public License",
            "url" : "http://www.gnu.org/licenses/old-licenses/lgpl-2.1.html"
          }
        }
      ],
      "purl" : "pkg:maven/ch.qos.logback/logback-classic@1.4.14?type=jar",
      "externalReferences" : [
        {
          "type" : "website",
          "url" : "http://logback.qos.ch/logback-classic"
        },
        {
          "type" : "distribution-intake",
          "url" : "https://oss.sonatype.org/service/local/staging/deploy/maven2/"
        },
        {
          "type" : "vcs",
          "url" : "https://github.com/qos-ch/logback/logback-classic"
        }
      ],
      "type" : "library",
      "bom-ref" : "pkg:maven/ch.qos.logback/logback-classic@1.4.14?type=jar"
    },
    {
      "publisher" : "QOS.ch",
      "group" : "ch.qos.logback",
      "name" : "logback-core",
      "version" : "1.4.14",
      "description" : "logback-core module",
      "scope" : "required",
      "hashes" : [
        {
          "alg" : "MD5",
          "content" : "7367629d307fa3d0b82d76b9d3f1d09a"
        },
        {
          "alg" : "SHA-1",
          "content" : "4d3c2248219ac0effeb380ed4c5280a80bf395e8"
        },
        {
          "alg" : "SHA-256",
          "content" : "f8c2f05f42530b1852739507c1792f0080167850ed8f396444c6913d6617a293"
        },
        {
          "alg" : "SHA-512",
          "content" : "d18159d4b378973e49182c4711b3d5b1f3600674ddd7bde26793247854bbd3a7233df7f74c356ecc86e4160ac6f866e0b32c109df6e1b428a10cddd4bc7f44e8"
        },
        {
          "alg" : "SHA-384",
          "content" : "afe21cf21e8804d069514a1f0d57c92b4caf56f8b010bd681d19fff67f237fcf0bbe1e1c9bfc4cedcfe602a3ea859b57"
        },
        {
          "alg" : "SHA3-384",
          "content" : "38cc28c8a578f4053412440d88b41938fa029a8ee3d350fe7474b34afa0f17889298d00f3c2cec4510d72d3342d29a77"
        },
        {
          "alg" : "SHA3-256",
          "content" : "6c7d3be575969be97a49e90a97a8dc1bb25380b1b302073e00d2e21cb266e6a6"
        },
        {
          "alg" : "SHA3-512",
          "content" : "8e9ce45d599bffac71e35a0d59c4dcff067f628157a75e9e28c1930f31537fb1dd058ddd9906322c1154f29436252a36bc50595578bfee9bcad4a9705c85726a"
        }
      ],
      "licenses" : [
        {
          "license" : {
            "id" : "EPL-1.0"
          }
        },
        {
          "license" : {
            "name" : "GNU Lesser General Public License",
            "url" : "http://www.gnu.org/licenses/old-licenses/lgpl-2.1.html"
          }
        }
      ],
      "purl" : "pkg:maven/ch.qos.logback/logback-core@1.4.14?type=jar",
      "externalReferences" : [
        {
          "type" : "website",
          "url" : "http://logback.qos.ch/logback-core"
        },
        {
          "type" : "distribution-intake",
          "url" : "https://oss.sonatype.org/service/local/staging/deploy/maven2/"
        },
        {
          "type" : "vcs",
          "url" : "https://github.com/qos-ch/logback/logback-core"
        }
      ],
      "type" : "library",
      "bom-ref" : "pkg:maven/ch.qos.logback/logback-core@1.4.14?type=jar"
    },
    {
      "publisher" : "The Apache Software Foundation",
      "group" : "org.apache.logging.log4j",
      "name" : "log4j-to-slf4j",
      "version" : "2.21.1",
      "description" : "The Apache Log4j binding between Log4j 2 API and SLF4J.",
      "scope" : "required",
      "hashes" : [
        {
          "alg" : "MD5",
          "content" : "00b957af4a40bea6a7bf61400b6ccf63"
        },
        {
          "alg" : "SHA-1",
          "content" : "d77b2ba81711ed596cd797cc2b5b5bd7409d841c"
        },
        {
          "alg" : "SHA-256",
          "content" : "de143c565ba78b0f2c0be58f132c7aec75e6e1a10845ebda5a4f17c2a35d9990"
        },
        {
          "alg" : "SHA-512",
          "content" : "8a7a682dc5ae6a123c8de6002f1470ad2682795c65b47b06397d9ad9a31729e588c406013bfa989f9c2a51750c353cd7a147bc036f2d66b0f8f0b3f13798a637"
        },
        {
          "alg" : "SHA-384",
          "content" : "8f3e4f1eea069f47b2c6111f1233448ea9ccc723b7c8a8bd308b7317a6ec1f47008d2952c1cb274152a38d3e21da750b"
        },
        {
          "alg" : "SHA3-384",
          "content" : "822f93c3bba450b89a7f64b4d81aab48a7f5c2f693b53a4dcc83eba3a8300ff90c9e7727223f3491c782c80bee9dc707"
        },
        {
          "alg" : "SHA3-256",
          "content" : "1f3f3aace32b45e9a6271c7b4ac76ddf86eb4f32e28e147a3e054dc8c836def1"
        },
        {
          "alg" : "SHA3-512",
          "content" : "bb61c16d22aeed2d6b18972f68a6c4670fb8a07eeb79407748a7d499bc64e8ad8eb9774d372d9286227665686fe90878f2ef7e7f8595b74cd448d0f847aec02e"
        }
      ],
      "licenses" : [
        {
          "license" : {
            "id" : "Apache-2.0",
            "url" : "https://www.apache.org/licenses/LICENSE-2.0"
          }
        }
      ],
      "purl" : "pkg:maven/org.apache.logging.log4j/log4j-to-slf4j@2.21.1?type=jar",
      "externalReferences" : [
        {
          "type" : "website",
          "url" : "https://logging.apache.org/log4j/2.x/log4j/log4j-to-slf4j/"
        },
        {
          "type" : "build-system",
          "url" : "https://github.com/apache/logging-log4j2/actions"
        },
        {
          "type" : "distribution-intake",
          "url" : "https://repository.apache.org/service/local/staging/deploy/maven2"
        },
        {
          "type" : "issue-tracker",
          "url" : "https://github.com/apache/logging-log4j2/issues"
        },
        {
          "type" : "mailing-list",
          "url" : "https://lists.apache.org/list.html?log4j-user@logging.apache.org"
        },
        {
          "type" : "vcs",
          "url" : "https://github.com/apache/logging-log4j2/log4j/log4j-to-slf4j"
        }
      ],
      "type" : "library",
      "bom-ref" : "pkg:maven/org.apache.logging.log4j/log4j-to-slf4j@2.21.1?type=jar"
    },
    {
      "publisher" : "The Apache Software Foundation",
      "group" : "org.apache.logging.log4j",
      "name" : "log4j-api",
      "version" : "2.21.1",
      "description" : "The Apache Log4j API",
      "scope" : "required",
      "hashes" : [
        {
          "alg" : "MD5",
          "content" : "b5e9bf76dd128b37666ecd9a252b50ec"
        },
        {
          "alg" : "SHA-1",
          "content" : "74c65e87b9ce1694a01524e192d7be989ba70486"
        },
        {
          "alg" : "SHA-256",
          "content" : "1db48e180881bef1deb502022006a025a248d8f6a26186789b0c7ce487c602d6"
        },
        {
          "alg" : "SHA-512",
          "content" : "4cbf72fbea7009ec2fc363aae2ccfe11ea2023967d65be39335eedd1d8917b7402eeb2219efd5a1f11d03833dd1f57eecab428616b03124ef2266c6cca06ac56"
        },
        {
          "alg" : "SHA-384",
          "content" : "edd8429f2f88476afbfa63314f7846d1341a4cfc58d3abe55b3cda236613feb6859f711e0ae60bd7821b74e488fb0666"
        },
        {
          "alg" : "SHA3-384",
          "content" : "b67292ff0c7ca988a4b40b6ec14582ef579990d275a37944ac9572ecdfd4bf6e9fff2ab982b21d159a1135c21a32495f"
        },
        {
          "alg" : "SHA3-256",
          "content" : "b2641c2db75d3c676e451a53b5f60dfaf030a84e0230747bd50d00414f8a27b3"
        },
        {
          "alg" : "SHA3-512",
          "content" : "f1f4d9c48a9d088460e1ad3d71126b243069e522588cdc5534ac8f201ec0574287e8f1fba182f8925ee75b78726269487cc0160f7f8bd1aa21cc8e587fdb5c4a"
        }
      ],
      "licenses" : [
        {
          "license" : {
            "id" : "Apache-2.0",
            "url" : "https://www.apache.org/licenses/LICENSE-2.0"
          }
        }
      ],
      "purl" : "pkg:maven/org.apache.logging.log4j/log4j-api@2.21.1?type=jar",
      "externalReferences" : [
        {
          "type" : "website",
          "url" : "https://logging.apache.org/log4j/2.x/log4j/log4j-api/"
        },
        {
          "type" : "build-system",
          "url" : "https://github.com/apache/logging-log4j2/actions"
        },
        {
          "type" : "distribution-intake",
          "url" : "https://repository.apache.org/service/local/staging/deploy/maven2"
        },
        {
          "type" : "issue-tracker",
          "url" : "https://github.com/apache/logging-log4j2/issues"
        },
        {
          "type" : "mailing-list",
          "url" : "https://lists.apache.org/list.html?log4j-user@logging.apache.org"
        },
        {
          "type" : "vcs",
          "url" : "https://github.com/apache/logging-log4j2/log4j/log4j-api"
        }
      ],
      "type" : "library",
      "bom-ref" : "pkg:maven/org.apache.logging.log4j/log4j-api@2.21.1?type=jar"
    },
    {
      "publisher" : "QOS.ch",
      "group" : "org.slf4j",
      "name" : "jul-to-slf4j",
      "version" : "2.0.12",
      "description" : "JUL to SLF4J bridge",
      "scope" : "required",
      "hashes" : [
        {
          "alg" : "MD5",
          "content" : "3fe62dfbc09a840168d3edc990182d90"
        },
        {
          "alg" : "SHA-1",
          "content" : "eb5f48f782b41cc881b0bf1fb4d88ae2ff6d5b93"
        },
        {
          "alg" : "SHA-256",
          "content" : "84f02864cab866ffb196ed2022b1b8da682ea6fb3d4a161069429e8391ee2979"
        },
        {
          "alg" : "SHA-512",
          "content" : "279cb74e418a1057d3ec42b47ed0cc5c4e9c8bf63c334f7bd58989e0a25e5c62d01b0225894bfa79c82ac76ff5e97154e37a061892719bfbe78f94a5a115340d"
        },
        {
          "alg" : "SHA-384",
          "content" : "12f43865591854a967b724d4c5cc9e76a6837a0415616b0065125ff3df726f20dc331ec134d61a41d612c623e0e615e4"
        },
        {
          "alg" : "SHA3-384",
          "content" : "f883770d004f7cf391f478743d51fff7aa82b8d9aafb22e30f4a4b21632b8fdfdb31c750f3ccff086ba7835c7c2cffb9"
        },
        {
          "alg" : "SHA3-256",
          "content" : "655a2eaf8a61a912747752b1a48712efb3cc5607f46d22f1ae85d5c8ce80f5d4"
        },
        {
          "alg" : "SHA3-512",
          "content" : "913f92d8ed188a4534b7e302dadda1549aa8c57cf8e0febfff0c60233e878a00f68aa933c0813cbb3002e84ec654fdb623ddbe6731cb917463e9b5ce09d8fbcb"
        }
      ],
      "licenses" : [
        {
          "license" : {
            "id" : "MIT",
            "url" : "https://opensource.org/licenses/MIT"
          }
        }
      ],
      "purl" : "pkg:maven/org.slf4j/jul-to-slf4j@2.0.12?type=jar",
      "externalReferences" : [
        {
          "type" : "website",
          "url" : "http://www.slf4j.org"
        },
        {
          "type" : "distribution-intake",
          "url" : "https://oss.sonatype.org/service/local/staging/deploy/maven2/"
        },
        {
          "type" : "vcs",
          "url" : "https://github.com/qos-ch/slf4j/slf4j-parent/jul-to-slf4j"
        }
      ],
      "type" : "library",
      "bom-ref" : "pkg:maven/org.slf4j/jul-to-slf4j@2.0.12?type=jar"
    },
    {
      "publisher" : "Eclipse Foundation",
      "group" : "jakarta.annotation",
      "name" : "jakarta.annotation-api",
      "version" : "2.1.1",
      "description" : "Jakarta Annotations API",
      "scope" : "required",
      "hashes" : [
        {
          "alg" : "MD5",
          "content" : "5dac2f68e8288d0add4dc92cb161711d"
        },
        {
          "alg" : "SHA-1",
          "content" : "48b9bda22b091b1f48b13af03fe36db3be6e1ae3"
        },
        {
          "alg" : "SHA-256",
          "content" : "5f65fdaf424eee2b55e1d882ba9bb376be93fb09b37b808be6e22e8851c909fe"
        },
        {
          "alg" : "SHA-512",
          "content" : "eabe8b855b735663684052ec4cc357cc737936fa57cebf144eb09f70b3b6c600db7fa6f1c93a4f36c5994b1b37dad2dfcec87a41448872e69552accfd7f52af6"
        },
        {
          "alg" : "SHA-384",
          "content" : "798597a6b80b423844d70609c54b00d725a357031888da7e5c3efd3914d1770be69aa7135de13ddb89a4420a5550e35b"
        },
        {
          "alg" : "SHA3-384",
          "content" : "9629b8ca82f61674f5573723bbb3c137060e1442062eb52fa9c90fc8f57ea7d836eb2fb765d160ec8bf300bcb6b820be"
        },
        {
          "alg" : "SHA3-256",
          "content" : "f71ffc2a2c2bd1a00dfc00c4be67dbe5f374078bd50d5b24c0b29fbcc6634ecb"
        },
        {
          "alg" : "SHA3-512",
          "content" : "aa4e29025a55878db6edb0d984bd3a0633f3af03fa69e1d26c97c87c6d29339714003c96e29ff0a977132ce9c2729d0e27e36e9e245a7488266138239bdba15e"
        }
      ],
      "licenses" : [
        {
          "license" : {
            "id" : "EPL-2.0"
          }
        },
        {
          "license" : {
            "id" : "GPL-2.0-with-classpath-exception"
          }
        }
      ],
      "purl" : "pkg:maven/jakarta.annotation/jakarta.annotation-api@2.1.1?type=jar",
      "externalReferences" : [
        {
          "type" : "website",
          "url" : "https://projects.eclipse.org/projects/ee4j.ca"
        },
        {
          "type" : "distribution-intake",
          "url" : "https://jakarta.oss.sonatype.org/service/local/staging/deploy/maven2/"
        },
        {
          "type" : "issue-tracker",
          "url" : "https://github.com/eclipse-ee4j/common-annotations-api/issues"
        },
        {
          "type" : "mailing-list",
          "url" : "https://dev.eclipse.org/mhonarc/lists/ca-dev"
        },
        {
          "type" : "vcs",
          "url" : "https://github.com/eclipse-ee4j/common-annotations-api"
        }
      ],
      "type" : "library",
      "bom-ref" : "pkg:maven/jakarta.annotation/jakarta.annotation-api@2.1.1?type=jar"
    },
    {
      "publisher" : "Spring IO",
      "group" : "org.springframework",
      "name" : "spring-core",
      "version" : "6.1.5",
      "description" : "Spring Core",
      "scope" : "required",
      "hashes" : [
        {
          "alg" : "MD5",
          "content" : "6eeff94b635753591e74d979ffc2f793"
        },
        {
          "alg" : "SHA-1",
          "content" : "6dae1b06ffacbb9abab636be2dbc6acd3b6e5d68"
        },
        {
          "alg" : "SHA-256",
          "content" : "476dac28509b3f47d0b5e895a639fa75ac2218f074ce214e44832a836c469f7e"
        },
        {
          "alg" : "SHA-512",
          "content" : "067d31ab99c842a586fbc1bf7aa7ac9aad0fa36d70f0e5bdb7e355514d66b1f6106dbb74ce15959a8dff8223a3e447ae30735e40f376e67f0ef8b70ed1a85002"
        },
        {
          "alg" : "SHA-384",
          "content" : "25728b0246bc11715c8b1fec2a704b74a6c2bd6e41851b44aead5c76d0ad1493929bdbcef51dee8005404099388c03ee"
        },
        {
          "alg" : "SHA3-384",
          "content" : "ba98714211e0a6d8337b876cd6452216d1752b5274671f476fa06a63931da1e8ff0d7d0b4105967ab68e6f967aa8b43e"
        },
        {
          "alg" : "SHA3-256",
          "content" : "70c250de2d49aec369e3abf959c980036051ca0f54ddfc774840c95a8eabccae"
        },
        {
          "alg" : "SHA3-512",
          "content" : "c4d9cb5d1a7a738f6a762bd8f9a0fbd2455f3900e702b77d5d1d76079ab1b614b7993f992473ea57639a57fdb46e985a3b29191b3d8a18215b97e82b31cdb3e7"
        }
      ],
      "licenses" : [
        {
          "license" : {
            "id" : "Apache-2.0"
          }
        }
      ],
      "purl" : "pkg:maven/org.springframework/spring-core@6.1.5?type=jar",
      "externalReferences" : [
        {
          "type" : "website",
          "url" : "https://github.com/spring-projects/spring-framework"
        },
        {
          "type" : "issue-tracker",
          "url" : "https://github.com/spring-projects/spring-framework/issues"
        },
        {
          "type" : "vcs",
          "url" : "https://github.com/spring-projects/spring-framework"
        }
      ],
      "type" : "library",
      "bom-ref" : "pkg:maven/org.springframework/spring-core@6.1.5?type=jar"
    },
    {
      "publisher" : "Spring IO",
      "group" : "org.springframework",
      "name" : "spring-jcl",
      "version" : "6.1.5",
      "description" : "Spring Commons Logging Bridge",
      "scope" : "required",
      "hashes" : [
        {
          "alg" : "MD5",
          "content" : "4b7724c57ea12f13ce3fc49a18209b6c"
        },
        {
          "alg" : "SHA-1",
          "content" : "896ae3519327731589c6e77521656b50ae32d5b3"
        },
        {
          "alg" : "SHA-256",
          "content" : "c53540419e482242c815db6d6a8cd80af85a6a895e38329b9d9bd6b4616503eb"
        },
        {
          "alg" : "SHA-512",
          "content" : "0de5bdae17924ab55ed7e6e97acbfeb60406fa99b10c1fd8a391f9f81c475691638535a297636fb79b51f02cf07d98ac613049235e9fdbf1186672c8b64c5967"
        },
        {
          "alg" : "SHA-384",
          "content" : "2844ddc317d6fed2c80c5090e3b4b976a063ad5fce4bf8dbfa7c1034cb647497a830142ff7e70b7eb0c8cf742a091071"
        },
        {
          "alg" : "SHA3-384",
          "content" : "dfc30f87671459ea2bdc8c25aa6ed814dd53a0ab60df4b98b44eb96ab28cd7bfce358c32b5ab8255d0c0d7ebba1a28b0"
        },
        {
          "alg" : "SHA3-256",
          "content" : "a7a4153deabf0b46852c6539f1d0d63bac5963eaf9ef73209097c3bd4b2118c3"
        },
        {
          "alg" : "SHA3-512",
          "content" : "62add3aa8ea534168ba2eb4e811628e35970e17a2ae350de376fd95e8e0d70045dc9f6748075bafe4f74ebec4278bb3e36243478e08b4329840c8f068b30cde9"
        }
      ],
      "licenses" : [
        {
          "license" : {
            "id" : "Apache-2.0"
          }
        }
      ],
      "purl" : "pkg:maven/org.springframework/spring-jcl@6.1.5?type=jar",
      "externalReferences" : [
        {
          "type" : "website",
          "url" : "https://github.com/spring-projects/spring-framework"
        },
        {
          "type" : "issue-tracker",
          "url" : "https://github.com/spring-projects/spring-framework/issues"
        },
        {
          "type" : "vcs",
          "url" : "https://github.com/spring-projects/spring-framework"
        }
      ],
      "type" : "library",
      "bom-ref" : "pkg:maven/org.springframework/spring-jcl@6.1.5?type=jar"
    },
    {
      "group" : "org.yaml",
      "name" : "snakeyaml",
      "version" : "2.2",
      "description" : "YAML 1.1 parser and emitter for Java",
      "scope" : "required",
      "hashes" : [
        {
          "alg" : "MD5",
          "content" : "d78aacf5f2de5b52f1a327470efd1ad7"
        },
        {
          "alg" : "SHA-1",
          "content" : "3af797a25458550a16bf89acc8e4ab2b7f2bfce0"
        },
        {
          "alg" : "SHA-256",
          "content" : "1467931448a0817696ae2805b7b8b20bfb082652bf9c4efaed528930dc49389b"
        },
        {
          "alg" : "SHA-512",
          "content" : "11547e75cc80bee26f532e2598bc6e4ffa802941496dc0d8ce017f1b15e01ebbb80e91ed17d1047916e32bf2fc58da532bc71a1dfe93afccc277a296d86634ba"
        },
        {
          "alg" : "SHA-384",
          "content" : "dae0cb1a7ab9ccc75413f46f18ae160e12e91dfef0c17a07ea547a365e9fb422c071aa01579f2a320f15ce6ee4c29038"
        },
        {
          "alg" : "SHA3-384",
          "content" : "654b418f330fa02f1111a20c27395ec5c7f463907ae44f60057c94da04f81e815cf1c3959f005026381ef79030049694"
        },
        {
          "alg" : "SHA3-256",
          "content" : "2c4deb8d79876b80b210ef72dc5de2b19607e50fbe3abf09a4324576ca0881fc"
        },
        {
          "alg" : "SHA3-512",
          "content" : "0d9be5610b2bcb6bb7562ee8bcc0d68f81d3771958ce9299c5e57e8ec952c96906d711587b7f72936328c72fb41687b4f908c4de3070b78cc1f3e257cf4b715e"
        }
      ],
      "licenses" : [
        {
          "license" : {
            "id" : "Apache-2.0"
          }
        }
      ],
      "purl" : "pkg:maven/org.yaml/snakeyaml@2.2?type=jar",
      "externalReferences" : [
        {
          "type" : "website",
          "url" : "https://bitbucket.org/snakeyaml/snakeyaml"
        },
        {
          "type" : "distribution-intake",
          "url" : "https://oss.sonatype.org/service/local/staging/deploy/maven2/"
        },
        {
          "type" : "issue-tracker",
          "url" : "https://bitbucket.org/snakeyaml/snakeyaml/issues"
        },
        {
          "type" : "vcs",
          "url" : "https://bitbucket.org/snakeyaml/snakeyaml/src"
        }
      ],
      "type" : "library",
      "bom-ref" : "pkg:maven/org.yaml/snakeyaml@2.2?type=jar"
    },
    {
      "publisher" : "QOS.ch",
      "group" : "org.slf4j",
      "name" : "slf4j-api",
      "version" : "2.0.12",
      "description" : "The slf4j API",
      "scope" : "required",
      "hashes" : [
        {
          "alg" : "MD5",
          "content" : "86eb051f2e2d6497a3a57810c963a9d6"
        },
        {
          "alg" : "SHA-1",
          "content" : "48f109a2a6d8f446c794f3e3fa0d86df0cdfa312"
        },
        {
          "alg" : "SHA-256",
          "content" : "a79502b8abdfbd722846a27691226a4088682d6d35654f9b80e2a9ccacf7ed47"
        },
        {
          "alg" : "SHA-512",
          "content" : "5bc0a61bd32b63ab7d44e210f1dcc3e4dc7417186ab8a2297f22edfa631513cc55b7fe3bb15eb0124b9a30dcfd4d168932bf3262cf6491feb2facbdfbe661e72"
        },
        {
          "alg" : "SHA-384",
          "content" : "7c8d503d37899b577f39e5a3517b69034cad655e31d4b783313533bf49054f25b0ae87f8c32e4eb40677a53011e6bbce"
        },
        {
          "alg" : "SHA3-384",
          "content" : "9bf58592bbf1d21ec6a6a55a084ea21a16d5d5c38dbadcded450ef6af8717b364beae497fdb600d9d3695e62fb26fe4b"
        },
        {
          "alg" : "SHA3-256",
          "content" : "72000cfd589a16b4eb81e4ac648a2781847aafe0dd464fa260fdd79196ccc693"
        },
        {
          "alg" : "SHA3-512",
          "content" : "1f91affc70ce6fdfa69be146d9f23835702a22c3a47b6c495b6964b3ea80d901bb1517b26e9fc973a3e6c7f38c25b74397856ae236519bf3d2ea96148c3118e2"
        }
      ],
      "licenses" : [
        {
          "license" : {
            "id" : "MIT",
            "url" : "https://opensource.org/licenses/MIT"
          }
        }
      ],
      "purl" : "pkg:maven/org.slf4j/slf4j-api@2.0.12?type=jar",
      "externalReferences" : [
        {
          "type" : "website",
          "url" : "http://www.slf4j.org"
        },
        {
          "type" : "distribution-intake",
          "url" : "https://oss.sonatype.org/service/local/staging/deploy/maven2/"
        },
        {
          "type" : "vcs",
          "url" : "https://github.com/qos-ch/slf4j/slf4j-parent/slf4j-api"
        }
      ],
      "type" : "library",
      "bom-ref" : "pkg:maven/org.slf4j/slf4j-api@2.0.12?type=jar"
    }
  ],
  "dependencies" : [
    {
      "ref" : "pkg:maven/dev.glt24demo.springboot/demo@0.0.1-SNAPSHOT?type=jar",
      "dependsOn" : [
        "pkg:maven/org.springframework.boot/spring-boot-starter@3.2.4?type=jar"
      ]
    },
    {
      "ref" : "pkg:maven/org.springframework.boot/spring-boot-starter@3.2.4?type=jar",
      "dependsOn" : [
        "pkg:maven/org.springframework.boot/spring-boot@3.2.4?type=jar",
        "pkg:maven/org.springframework.boot/spring-boot-autoconfigure@3.2.4?type=jar",
        "pkg:maven/org.springframework.boot/spring-boot-starter-logging@3.2.4?type=jar",
        "pkg:maven/jakarta.annotation/jakarta.annotation-api@2.1.1?type=jar",
        "pkg:maven/org.springframework/spring-core@6.1.5?type=jar",
        "pkg:maven/org.yaml/snakeyaml@2.2?type=jar"
      ]
    },
    {
      "ref" : "pkg:maven/org.springframework.boot/spring-boot@3.2.4?type=jar",
      "dependsOn" : [
        "pkg:maven/org.springframework/spring-core@6.1.5?type=jar",
        "pkg:maven/org.springframework/spring-context@6.1.5?type=jar"
      ]
    },
    {
      "ref" : "pkg:maven/org.springframework/spring-core@6.1.5?type=jar",
      "dependsOn" : [
        "pkg:maven/org.springframework/spring-jcl@6.1.5?type=jar"
      ]
    },
    {
      "ref" : "pkg:maven/org.springframework/spring-jcl@6.1.5?type=jar",
      "dependsOn" : [ ]
    },
    {
      "ref" : "pkg:maven/org.springframework/spring-context@6.1.5?type=jar",
      "dependsOn" : [
        "pkg:maven/org.springframework/spring-aop@6.1.5?type=jar",
        "pkg:maven/org.springframework/spring-beans@6.1.5?type=jar",
        "pkg:maven/org.springframework/spring-core@6.1.5?type=jar",
        "pkg:maven/org.springframework/spring-expression@6.1.5?type=jar",
        "pkg:maven/io.micrometer/micrometer-observation@1.12.4?type=jar"
      ]
    },
    {
      "ref" : "pkg:maven/org.springframework/spring-aop@6.1.5?type=jar",
      "dependsOn" : [
        "pkg:maven/org.springframework/spring-beans@6.1.5?type=jar",
        "pkg:maven/org.springframework/spring-core@6.1.5?type=jar"
      ]
    },
    {
      "ref" : "pkg:maven/org.springframework/spring-beans@6.1.5?type=jar",
      "dependsOn" : [
        "pkg:maven/org.springframework/spring-core@6.1.5?type=jar"
      ]
    },
    {
      "ref" : "pkg:maven/org.springframework/spring-expression@6.1.5?type=jar",
      "dependsOn" : [
        "pkg:maven/org.springframework/spring-core@6.1.5?type=jar"
      ]
    },
    {
      "ref" : "pkg:maven/io.micrometer/micrometer-observation@1.12.4?type=jar",
      "dependsOn" : [
        "pkg:maven/io.micrometer/micrometer-commons@1.12.4?type=jar"
      ]
    },
    {
      "ref" : "pkg:maven/io.micrometer/micrometer-commons@1.12.4?type=jar",
      "dependsOn" : [ ]
    },
    {
      "ref" : "pkg:maven/org.springframework.boot/spring-boot-autoconfigure@3.2.4?type=jar",
      "dependsOn" : [
        "pkg:maven/org.springframework.boot/spring-boot@3.2.4?type=jar"
      ]
    },
    {
      "ref" : "pkg:maven/org.springframework.boot/spring-boot-starter-logging@3.2.4?type=jar",
      "dependsOn" : [
        "pkg:maven/ch.qos.logback/logback-classic@1.4.14?type=jar",
        "pkg:maven/org.apache.logging.log4j/log4j-to-slf4j@2.21.1?type=jar",
        "pkg:maven/org.slf4j/jul-to-slf4j@2.0.12?type=jar"
      ]
    },
    {
      "ref" : "pkg:maven/ch.qos.logback/logback-classic@1.4.14?type=jar",
      "dependsOn" : [
        "pkg:maven/ch.qos.logback/logback-core@1.4.14?type=jar",
        "pkg:maven/org.slf4j/slf4j-api@2.0.12?type=jar"
      ]
    },
    {
      "ref" : "pkg:maven/ch.qos.logback/logback-core@1.4.14?type=jar",
      "dependsOn" : [ ]
    },
    {
      "ref" : "pkg:maven/org.slf4j/slf4j-api@2.0.12?type=jar",
      "dependsOn" : [ ]
    },
    {
      "ref" : "pkg:maven/org.apache.logging.log4j/log4j-to-slf4j@2.21.1?type=jar",
      "dependsOn" : [
        "pkg:maven/org.apache.logging.log4j/log4j-api@2.21.1?type=jar",
        "pkg:maven/org.slf4j/slf4j-api@2.0.12?type=jar"
      ]
    },
    {
      "ref" : "pkg:maven/org.apache.logging.log4j/log4j-api@2.21.1?type=jar",
      "dependsOn" : [ ]
    },
    {
      "ref" : "pkg:maven/org.slf4j/jul-to-slf4j@2.0.12?type=jar",
      "dependsOn" : [
        "pkg:maven/org.slf4j/slf4j-api@2.0.12?type=jar"
      ]
    },
    {
      "ref" : "pkg:maven/jakarta.annotation/jakarta.annotation-api@2.1.1?type=jar",
      "dependsOn" : [ ]
    },
    {
      "ref" : "pkg:maven/org.yaml/snakeyaml@2.2?type=jar",
      "dependsOn" : [ ]
    }
  ]
}